{
  "forge_marker": 1,
  "defaults": {
    "transform": "forge:default-block",
    "model": "leaves",
    "textures": { "all": "midnight:blocks/dewshroom_hat_outside" }
  },
  "variants": {
    "tree": {
      "0": {},
      "1": {},
      "2": {},
      "3": {}
    },
    "hydro": {
      "1": {},
      "2": {},
      "3": {},
      "4": {}
    },
    "decayable": {
      "true": {},
      "false": {}
    }
  }
}