{
  "forge_marker": 1,
  "defaults": {
    "model": "dynamictrees:sapling",
    "textures": {
      "log": "midnight:blocks/viridshroom_stem",
      "leaves": "midnight:blocks/viridshroom_hat_outside"
    }
  },
  "variants": {
    "normal": [{

    }]
  }
}